Library\Bee\artifacts\mvdfrm\Unity.VisualScripting.Core.ref.dll_D75DF4EA1AFE54F4.mvfrm
Library\Bee\artifacts\mvdfrm\UnityEditor.UI.ref.dll_4C98D3F7040CD4F5.mvfrm
Library\Bee\artifacts\mvdfrm\UnityEngine.UI.ref.dll_08FEAA520A2EFD60.mvfrm
Library\Bee\artifacts\mvdfrm\UnityEditor.Graphs.dll_2CD316E789B0063A.mvfrm
Library\Bee\artifacts\mvdfrm\UnityEditor.CoreModule.dll_7603104019638408.mvfrm
Library\Bee\artifacts\mvdfrm\UnityEditor.DeviceSimulatorModule.dll_6FEE4072E68E4039.mvfrm
Library\Bee\artifacts\mvdfrm\UnityEditor.DiagnosticsModule.dll_57A26CDE62823C47.mvfrm
Library\Bee\artifacts\mvdfrm\UnityEditor.dll_3EA132B828EEE70D.mvfrm
Library\Bee\artifacts\mvdfrm\UnityEditor.GraphViewModule.dll_D56A4988E52C1D3E.mvfrm
Library\Bee\artifacts\mvdfrm\UnityEditor.PackageManagerUIModule.dll_078B263EEB907764.mvfrm
Library\Bee\artifacts\mvdfrm\UnityEditor.QuickSearchModule.dll_E2B1EDEBBB5938A0.mvfrm
Library\Bee\artifacts\mvdfrm\UnityEditor.SceneTemplateModule.dll_120BAA8FC48DCB21.mvfrm
Library\Bee\artifacts\mvdfrm\UnityEditor.TextCoreFontEngineModule.dll_687D2EE80976AC86.mvfrm
Library\Bee\artifacts\mvdfrm\UnityEditor.TextCoreTextEngineModule.dll_B065655998FA65A4.mvfrm
Library\Bee\artifacts\mvdfrm\UnityEditor.UIBuilderModule.dll_29F2F6A557E49672.mvfrm
Library\Bee\artifacts\mvdfrm\UnityEditor.UIElementsModule.dll_B69AA3E526452644.mvfrm
Library\Bee\artifacts\mvdfrm\UnityEditor.UIElementsSamplesModule.dll_1F32A93D5DCE8B69.mvfrm
Library\Bee\artifacts\mvdfrm\UnityEditor.UIServiceModule.dll_62E50808411BE68C.mvfrm
Library\Bee\artifacts\mvdfrm\UnityEditor.UnityConnectModule.dll_9DBE386837A236BE.mvfrm
Library\Bee\artifacts\mvdfrm\UnityEngine.AccessibilityModule.dll_44B11626C503F2BE.mvfrm
Library\Bee\artifacts\mvdfrm\UnityEngine.AIModule.dll_491E751AC7F1215C.mvfrm
Library\Bee\artifacts\mvdfrm\UnityEngine.AndroidJNIModule.dll_34E38CB86F64951A.mvfrm
Library\Bee\artifacts\mvdfrm\UnityEngine.AnimationModule.dll_A3EFC5B1BF88F1E4.mvfrm
Library\Bee\artifacts\mvdfrm\UnityEngine.ARModule.dll_02913A1E250E8025.mvfrm
Library\Bee\artifacts\mvdfrm\UnityEngine.AssetBundleModule.dll_269B20DD1DBFED92.mvfrm
Library\Bee\artifacts\mvdfrm\UnityEngine.AudioModule.dll_3D68FCC1B72D39D6.mvfrm
Library\Bee\artifacts\mvdfrm\UnityEngine.ClothModule.dll_A45159BC914A18BA.mvfrm
Library\Bee\artifacts\mvdfrm\UnityEngine.ClusterInputModule.dll_1D5AAD7DE92A0984.mvfrm
Library\Bee\artifacts\mvdfrm\UnityEngine.ClusterRendererModule.dll_759B02E456494DBD.mvfrm
Library\Bee\artifacts\mvdfrm\UnityEngine.CoreModule.dll_9923E392C168EF33.mvfrm
Library\Bee\artifacts\mvdfrm\UnityEngine.CrashReportingModule.dll_8CF0B1DB209180AB.mvfrm
Library\Bee\artifacts\mvdfrm\UnityEngine.DirectorModule.dll_72E3F4689105F210.mvfrm
Library\Bee\artifacts\mvdfrm\UnityEngine.dll_71457990876273F2.mvfrm
Library\Bee\artifacts\mvdfrm\UnityEngine.DSPGraphModule.dll_783555D20366C331.mvfrm
Library\Bee\artifacts\mvdfrm\UnityEngine.GameCenterModule.dll_5F30D6D335A5860B.mvfrm
Library\Bee\artifacts\mvdfrm\UnityEngine.GIModule.dll_E15ABE2863A00976.mvfrm
Library\Bee\artifacts\mvdfrm\UnityEngine.GridModule.dll_7694FF80D9BD852A.mvfrm
Library\Bee\artifacts\mvdfrm\UnityEngine.HotReloadModule.dll_253883B79ABC0D66.mvfrm
Library\Bee\artifacts\mvdfrm\UnityEngine.ImageConversionModule.dll_E18D0094D86E05B1.mvfrm
Library\Bee\artifacts\mvdfrm\UnityEngine.IMGUIModule.dll_75C89C287D5ECDB7.mvfrm
Library\Bee\artifacts\mvdfrm\UnityEngine.InputLegacyModule.dll_B7E03BFBB5B1A383.mvfrm
Library\Bee\artifacts\mvdfrm\UnityEngine.InputModule.dll_A3DEC4722D655E7A.mvfrm
Library\Bee\artifacts\mvdfrm\UnityEngine.JSONSerializeModule.dll_A4C89F62C43F5348.mvfrm
Library\Bee\artifacts\mvdfrm\UnityEngine.LocalizationModule.dll_5BA777D080A5FC7D.mvfrm
Library\Bee\artifacts\mvdfrm\UnityEngine.ParticleSystemModule.dll_E002FB278EA30C39.mvfrm
Library\Bee\artifacts\mvdfrm\UnityEngine.PerformanceReportingModule.dll_609EA5A51B0676F2.mvfrm
Library\Bee\artifacts\mvdfrm\UnityEngine.Physics2DModule.dll_F095B5A26085E979.mvfrm
Library\Bee\artifacts\mvdfrm\UnityEngine.PhysicsModule.dll_C5553CC28A921B67.mvfrm
Library\Bee\artifacts\mvdfrm\UnityEngine.ProfilerModule.dll_A52A2D9F2A5F791D.mvfrm
Library\Bee\artifacts\mvdfrm\UnityEngine.RuntimeInitializeOnLoadManagerInitializerModule.dll_AFB99A05891FCC42.mvfrm
Library\Bee\artifacts\mvdfrm\UnityEngine.ScreenCaptureModule.dll_BEB04CE7D8AB7FAA.mvfrm
Library\Bee\artifacts\mvdfrm\UnityEngine.SharedInternalsModule.dll_659E3F6A4F9C0101.mvfrm
Library\Bee\artifacts\mvdfrm\UnityEngine.SpriteMaskModule.dll_485D496357151B85.mvfrm
Library\Bee\artifacts\mvdfrm\UnityEngine.SpriteShapeModule.dll_3FFC4E37D362259C.mvfrm
Library\Bee\artifacts\mvdfrm\UnityEngine.StreamingModule.dll_5884B3020F10A922.mvfrm
Library\Bee\artifacts\mvdfrm\UnityEngine.SubstanceModule.dll_352FC74B5A63A730.mvfrm
Library\Bee\artifacts\mvdfrm\UnityEngine.SubsystemsModule.dll_B30AAFC5255D0398.mvfrm
Library\Bee\artifacts\mvdfrm\UnityEngine.TerrainModule.dll_DF9BB83160506455.mvfrm
Library\Bee\artifacts\mvdfrm\UnityEngine.TerrainPhysicsModule.dll_E07DA3FAA7E606C6.mvfrm
Library\Bee\artifacts\mvdfrm\UnityEngine.TextCoreFontEngineModule.dll_E6DCAA3B1C746B51.mvfrm
Library\Bee\artifacts\mvdfrm\UnityEngine.TextCoreTextEngineModule.dll_2EC4E0ACABF8246F.mvfrm
Library\Bee\artifacts\mvdfrm\UnityEngine.TextRenderingModule.dll_E7EFBEF28FE2FF9F.mvfrm
Library\Bee\artifacts\mvdfrm\UnityEngine.TilemapModule.dll_7E981FB2780D455E.mvfrm
Library\Bee\artifacts\mvdfrm\UnityEngine.TLSModule.dll_201182DDC998BA7B.mvfrm
Library\Bee\artifacts\mvdfrm\UnityEngine.UIElementsModule.dll_B749112D28893F8F.mvfrm
Library\Bee\artifacts\mvdfrm\UnityEngine.UIElementsNativeModule.dll_5204DAD45D08E786.mvfrm
Library\Bee\artifacts\mvdfrm\UnityEngine.UIModule.dll_4492134824382708.mvfrm
Library\Bee\artifacts\mvdfrm\UnityEngine.UmbraModule.dll_B83DA8DA4453E549.mvfrm
Library\Bee\artifacts\mvdfrm\UnityEngine.UNETModule.dll_2BCA2B7C0E77E4AC.mvfrm
Library\Bee\artifacts\mvdfrm\UnityEngine.UnityAnalyticsModule.dll_FFA26BF13ACA5E35.mvfrm
Library\Bee\artifacts\mvdfrm\UnityEngine.UnityConnectModule.dll_8B1DBC77322A3769.mvfrm
Library\Bee\artifacts\mvdfrm\UnityEngine.UnityCurlModule.dll_D70C66E32F9CE3D1.mvfrm
Library\Bee\artifacts\mvdfrm\UnityEngine.UnityTestProtocolModule.dll_DAF55F2FB7C9E0BF.mvfrm
Library\Bee\artifacts\mvdfrm\UnityEngine.UnityWebRequestAssetBundleModule.dll_9CD4E09EF922A0C6.mvfrm
Library\Bee\artifacts\mvdfrm\UnityEngine.UnityWebRequestAudioModule.dll_D89AF983A171418A.mvfrm
Library\Bee\artifacts\mvdfrm\UnityEngine.UnityWebRequestModule.dll_F32C083EE362A030.mvfrm
Library\Bee\artifacts\mvdfrm\UnityEngine.UnityWebRequestTextureModule.dll_8527587E4631CC9F.mvfrm
Library\Bee\artifacts\mvdfrm\UnityEngine.UnityWebRequestWWWModule.dll_F98726089BB7E0DB.mvfrm
Library\Bee\artifacts\mvdfrm\UnityEngine.VehiclesModule.dll_EAA6EDE80B2FC1AB.mvfrm
Library\Bee\artifacts\mvdfrm\UnityEngine.VFXModule.dll_A0F01B4CA00623E8.mvfrm
Library\Bee\artifacts\mvdfrm\UnityEngine.VideoModule.dll_6272812C79BF557B.mvfrm
Library\Bee\artifacts\mvdfrm\UnityEngine.VirtualTexturingModule.dll_76918F4335B76811.mvfrm
Library\Bee\artifacts\mvdfrm\UnityEngine.VRModule.dll_976439CDC5F2AC80.mvfrm
Library\Bee\artifacts\mvdfrm\UnityEngine.WindModule.dll_0F72BEBB529F6D9C.mvfrm
Library\Bee\artifacts\mvdfrm\UnityEngine.XRModule.dll_CA22FCD24F2CF9DE.mvfrm
Library\Bee\artifacts\mvdfrm\Unity.Android.Gradle.dll_331B7640408DD1F0.mvfrm
Library\Bee\artifacts\mvdfrm\Unity.Android.Types.dll_5155F9590D95514C.mvfrm
Library\Bee\artifacts\mvdfrm\UnityEditor.Android.Extensions.dll_AF9B4B0E41DE1430.mvfrm
Library\Bee\artifacts\mvdfrm\UnityEditor.UWP.Extensions.dll_B2691192A35562C3.mvfrm
Library\Bee\artifacts\mvdfrm\UnityEditor.WindowsStandalone.Extensions.dll_E2B59EE61F27F618.mvfrm
Library\Bee\artifacts\mvdfrm\Unity.Burst.Cecil.dll_361124948BB0D648.mvfrm
Library\Bee\artifacts\mvdfrm\Unity.Burst.Cecil.Mdb.dll_4CA882E1820F6B85.mvfrm
Library\Bee\artifacts\mvdfrm\Unity.Burst.Cecil.Pdb.dll_63FAFB5100C46D08.mvfrm
Library\Bee\artifacts\mvdfrm\Unity.Burst.Cecil.Rocks.dll_BF1B7A821A765E28.mvfrm
Library\Bee\artifacts\mvdfrm\Unity.Burst.Unsafe.dll_9D8B501E13083DCB.mvfrm
Library\Bee\artifacts\mvdfrm\Unity.Plastic.Antlr3.Runtime.dll_D6755197EB84CB84.mvfrm
Library\Bee\artifacts\mvdfrm\Unity.Plastic.Newtonsoft.Json.dll_9D04CC94915E2771.mvfrm
Library\Bee\artifacts\mvdfrm\Unity.Collections.LowLevel.ILSupport.dll_CB3379749BA3A24C.mvfrm
Library\Bee\artifacts\mvdfrm\Unity.VisualScripting.IonicZip.dll_FFF3890DED76EE86.mvfrm
Library\Bee\artifacts\mvdfrm\Unity.VisualScripting.YamlDotNet.dll_4D88050A536505D6.mvfrm
Library\Bee\artifacts\mvdfrm\Unity.VisualScripting.Antlr3.Runtime.dll_FEF52BEB842E15F5.mvfrm