Library\Bee\artifacts\mvdfrm\UnityEngine.UI.ref.dll_FAE6DBEA21006BE5.mvfrm
Library\Bee\artifacts\mvdfrm\UnityEngine.AccessibilityModule.dll_06DB9BC621E7AC60.mvfrm
Library\Bee\artifacts\mvdfrm\UnityEngine.AIModule.dll_D52096F2B161761A.mvfrm
Library\Bee\artifacts\mvdfrm\UnityEngine.AndroidJNIModule.dll_2F93A6B0E07148D8.mvfrm
Library\Bee\artifacts\mvdfrm\UnityEngine.AnimationModule.dll_B777D73645FA7306.mvfrm
Library\Bee\artifacts\mvdfrm\UnityEngine.ARModule.dll_8E935BF60E7ED4E3.mvfrm
Library\Bee\artifacts\mvdfrm\UnityEngine.AssetBundleModule.dll_BE546111267DC6F4.mvfrm
Library\Bee\artifacts\mvdfrm\UnityEngine.AudioModule.dll_7B556912812EA278.mvfrm
Library\Bee\artifacts\mvdfrm\UnityEngine.ClothModule.dll_E23DC60D5B4B815C.mvfrm
Library\Bee\artifacts\mvdfrm\UnityEngine.ClusterInputModule.dll_246D9565F2C3C102.mvfrm
Library\Bee\artifacts\mvdfrm\UnityEngine.ClusterRendererModule.dll_B32B3906072D6F9F.mvfrm
Library\Bee\artifacts\mvdfrm\UnityEngine.CoreModule.dll_02A32325A39467B1.mvfrm
Library\Bee\artifacts\mvdfrm\UnityEngine.CrashReportingModule.dll_7637D7135DE233E9.mvfrm
Library\Bee\artifacts\mvdfrm\UnityEngine.DirectorModule.dll_29895FDA3F209A0E.mvfrm
Library\Bee\artifacts\mvdfrm\UnityEngine.dll_185ACBEF7AD05314.mvfrm
Library\Bee\artifacts\mvdfrm\UnityEngine.DSPGraphModule.dll_2EDAC143B1816B2F.mvfrm
Library\Bee\artifacts\mvdfrm\UnityEngine.GameCenterModule.dll_59E0F0CBA6B239C9.mvfrm
Library\Bee\artifacts\mvdfrm\UnityEngine.GIModule.dll_6D5CE0004D105E34.mvfrm
Library\Bee\artifacts\mvdfrm\UnityEngine.GridModule.dll_E0143F13BBE8FDA8.mvfrm
Library\Bee\artifacts\mvdfrm\UnityEngine.HotReloadModule.dll_38C0953C212D8E88.mvfrm
Library\Bee\artifacts\mvdfrm\UnityEngine.ImageConversionModule.dll_1F1D36B689522793.mvfrm
Library\Bee\artifacts\mvdfrm\UnityEngine.IMGUIModule.dll_B3B5087947603659.mvfrm
Library\Bee\artifacts\mvdfrm\UnityEngine.InputLegacyModule.dll_4F997C2FBE6F7CE5.mvfrm
Library\Bee\artifacts\mvdfrm\UnityEngine.InputModule.dll_E1CB30C2F766C71C.mvfrm
Library\Bee\artifacts\mvdfrm\UnityEngine.JSONSerializeModule.dll_66F3250221230CEA.mvfrm
Library\Bee\artifacts\mvdfrm\UnityEngine.LocalizationModule.dll_62BA5FB88A3FB3FB.mvfrm
Library\Bee\artifacts\mvdfrm\UnityEngine.ParticleSystemModule.dll_C94A205FCBF3BF77.mvfrm
Library\Bee\artifacts\mvdfrm\UnityEngine.PerformanceReportingModule.dll_1A6A321CDC2DED70.mvfrm
Library\Bee\artifacts\mvdfrm\UnityEngine.Physics2DModule.dll_041DC726E6F76A9B.mvfrm
Library\Bee\artifacts\mvdfrm\UnityEngine.PhysicsModule.dll_7876AD7168AFCC49.mvfrm
Library\Bee\artifacts\mvdfrm\UnityEngine.ProfilerModule.dll_5BCF9910D87A211B.mvfrm
Library\Bee\artifacts\mvdfrm\UnityEngine.RuntimeInitializeOnLoadManagerInitializerModule.dll_6C352CA2AFFE9164.mvfrm
Library\Bee\artifacts\mvdfrm\UnityEngine.ScreenCaptureModule.dll_80DAD287358F394C.mvfrm
Library\Bee\artifacts\mvdfrm\UnityEngine.SharedInternalsModule.dll_A32E758C008022E3.mvfrm
Library\Bee\artifacts\mvdfrm\UnityEngine.SpriteMaskModule.dll_430D635BC821CF43.mvfrm
Library\Bee\artifacts\mvdfrm\UnityEngine.SpriteShapeModule.dll_D7B58E6BDC1FFEFE.mvfrm
Library\Bee\artifacts\mvdfrm\UnityEngine.StreamingModule.dll_6C0CC48695822A44.mvfrm
Library\Bee\artifacts\mvdfrm\UnityEngine.SubstanceModule.dll_48B7D8CFE0D52852.mvfrm
Library\Bee\artifacts\mvdfrm\UnityEngine.SubsystemsModule.dll_ADBAC9BD9669B756.mvfrm
Library\Bee\artifacts\mvdfrm\UnityEngine.TerrainModule.dll_92BD28E03E6E1537.mvfrm
Library\Bee\artifacts\mvdfrm\UnityEngine.TerrainPhysicsModule.dll_C9C4C932E536BA04.mvfrm
Library\Bee\artifacts\mvdfrm\UnityEngine.TextCoreFontEngineModule.dll_FA3D7A5D9C4CFE0F.mvfrm
Library\Bee\artifacts\mvdfrm\UnityEngine.TextCoreTextEngineModule.dll_4225B0CF2BD0B72D.mvfrm
Library\Bee\artifacts\mvdfrm\UnityEngine.TextRenderingModule.dll_AA1A4491ECC6B941.mvfrm
Library\Bee\artifacts\mvdfrm\UnityEngine.TilemapModule.dll_31B99061562AF640.mvfrm
Library\Bee\artifacts\mvdfrm\UnityEngine.TLSModule.dll_2B0977747C1462DD.mvfrm
Library\Bee\artifacts\mvdfrm\UnityEngine.UIElementsModule.dll_B1F92B259995F34D.mvfrm
Library\Bee\artifacts\mvdfrm\UnityEngine.UIElementsNativeModule.dll_339E5EAB06A98E84.mvfrm
Library\Bee\artifacts\mvdfrm\UnityEngine.UIModule.dll_D09435200DA87BC6.mvfrm
Library\Bee\artifacts\mvdfrm\UnityEngine.UmbraModule.dll_F62A152B0E554DEB.mvfrm
Library\Bee\artifacts\mvdfrm\UnityEngine.UNETModule.dll_95496B0EF0A35D2A.mvfrm
Library\Bee\artifacts\mvdfrm\UnityEngine.UnityAnalyticsModule.dll_E8E99129781B1173.mvfrm
Library\Bee\artifacts\mvdfrm\UnityEngine.UnityConnectModule.dll_9230A45F3BC3EEE7.mvfrm
Library\Bee\artifacts\mvdfrm\UnityEngine.UnityCurlModule.dll_EA947867B60E64F3.mvfrm
Library\Bee\artifacts\mvdfrm\UnityEngine.UnityTestProtocolModule.dll_3506D0D124A9F2E1.mvfrm
Library\Bee\artifacts\mvdfrm\UnityEngine.UnityWebRequestAssetBundleModule.dll_193CFB9526B69284.mvfrm
Library\Bee\artifacts\mvdfrm\UnityEngine.UnityWebRequestAudioModule.dll_926685FB6298B808.mvfrm
Library\Bee\artifacts\mvdfrm\UnityEngine.UnityWebRequestModule.dll_30BC3E609446C212.mvfrm
Library\Bee\artifacts\mvdfrm\UnityEngine.UnityWebRequestTextureModule.dll_88F10D3840CE1EDD.mvfrm
Library\Bee\artifacts\mvdfrm\UnityEngine.UnityWebRequestWWWModule.dll_0CE7F62B1B907399.mvfrm
Library\Bee\artifacts\mvdfrm\UnityEngine.VehiclesModule.dll_A14C5959B94A69A9.mvfrm
Library\Bee\artifacts\mvdfrm\UnityEngine.VFXModule.dll_ABE80FE35281CC4A.mvfrm
Library\Bee\artifacts\mvdfrm\UnityEngine.VideoModule.dll_A05EED7D43C0BE1D.mvfrm
Library\Bee\artifacts\mvdfrm\UnityEngine.VirtualTexturingModule.dll_582B1319DF580F0F.mvfrm
Library\Bee\artifacts\mvdfrm\UnityEngine.VRModule.dll_23665BA5AF63013E.mvfrm
Library\Bee\artifacts\mvdfrm\UnityEngine.WindModule.dll_78F1FE4E34CAE61A.mvfrm
Library\Bee\artifacts\mvdfrm\UnityEngine.XRModule.dll_56251EAA389D4E9C.mvfrm
Library\Bee\artifacts\mvdfrm\Unity.Burst.Cecil.dll_361124948BB0D648.mvfrm
Library\Bee\artifacts\mvdfrm\Unity.Burst.Cecil.Mdb.dll_4CA882E1820F6B85.mvfrm
Library\Bee\artifacts\mvdfrm\Unity.Burst.Cecil.Pdb.dll_63FAFB5100C46D08.mvfrm
Library\Bee\artifacts\mvdfrm\Unity.Burst.Cecil.Rocks.dll_BF1B7A821A765E28.mvfrm
Library\Bee\artifacts\mvdfrm\Unity.Burst.Unsafe.dll_9D8B501E13083DCB.mvfrm
Library\Bee\artifacts\mvdfrm\Unity.Collections.LowLevel.ILSupport.dll_CB3379749BA3A24C.mvfrm
Library\Bee\artifacts\mvdfrm\Unity.VisualScripting.Antlr3.Runtime.dll_FEF52BEB842E15F5.mvfrm