-a="F:\projekty\kasza\Kaszaa\Library\PlayerScriptAssemblies\Assembly-CSharp.dll"
-a="F:\projekty\kasza\Kaszaa\Library\PlayerScriptAssemblies\Unity.InternalAPIEngineBridge.001.dll"
-a="F:\projekty\kasza\Kaszaa\Library\PlayerScriptAssemblies\Unity.2D.PixelPerfect.dll"
-a="F:\projekty\kasza\Kaszaa\Library\PlayerScriptAssemblies\UnityEngine.UI.dll"
-a="F:\projekty\kasza\Kaszaa\Library\PlayerScriptAssemblies\Unity.Networking.Transport.dll"
-a="F:\projekty\kasza\Kaszaa\Library\PlayerScriptAssemblies\Unity.2D.IK.Runtime.dll"
-a="F:\projekty\kasza\Kaszaa\Library\PlayerScriptAssemblies\Unity.Netcode.Components.dll"
-a="F:\projekty\kasza\Kaszaa\Library\PlayerScriptAssemblies\Unity.Collections.dll"
-a="F:\projekty\kasza\Kaszaa\Library\PlayerScriptAssemblies\Unity.2D.Tilemap.Extras.dll"
-a="F:\projekty\kasza\Kaszaa\Library\PlayerScriptAssemblies\UnityEngine.TestRunner.dll"
-a="F:\projekty\kasza\Kaszaa\Library\PlayerScriptAssemblies\Unity.Timeline.dll"
-a="F:\projekty\kasza\Kaszaa\Library\PlayerScriptAssemblies\Unity.TextMeshPro.dll"
-a="F:\projekty\kasza\Kaszaa\Library\PlayerScriptAssemblies\Unity.VisualScripting.Flow.dll"
-a="F:\projekty\kasza\Kaszaa\Library\PlayerScriptAssemblies\Unity.Netcode.Runtime.dll"
-a="F:\projekty\kasza\Kaszaa\Library\PlayerScriptAssemblies\Unity.VisualScripting.Core.dll"
-a="F:\projekty\kasza\Kaszaa\Library\PlayerScriptAssemblies\Unity.Mathematics.dll"
-a="F:\projekty\kasza\Kaszaa\Library\PlayerScriptAssemblies\Unity.Burst.dll"
-a="F:\projekty\kasza\Kaszaa\Library\PlayerScriptAssemblies\Unity.2D.Animation.Runtime.dll"
-a="F:\projekty\kasza\Kaszaa\Library\PlayerScriptAssemblies\Unity.2D.Common.Runtime.dll"
-a="F:\projekty\kasza\Kaszaa\Library\PlayerScriptAssemblies\Unity.2D.SpriteShape.Runtime.dll"
-a="F:\projekty\kasza\Kaszaa\Library\PlayerScriptAssemblies\Unity.VisualScripting.State.dll"
-a="F:\projekty\kasza\Kaszaa\Library\PackageCache\com.unity.nuget.newtonsoft-json@2.0.0\Runtime\AOT\Newtonsoft.Json.dll"
-a="F:\projekty\kasza\Kaszaa\Library\PackageCache\com.unity.collections@1.2.4\Unity.Collections.LowLevel.ILSupport\Unity.Collections.LowLevel.ILSupport.dll"
-a="F:\projekty\kasza\Kaszaa\Library\PackageCache\com.unity.nuget.mono-cecil@1.10.1\Mono.Cecil.Mdb.dll"
-a="F:\projekty\kasza\Kaszaa\Library\PackageCache\com.unity.transport@1.2.0\Analyzers\Unity.Transport.Analyzers.dll"
-a="F:\projekty\kasza\Kaszaa\Library\PackageCache\com.unity.burst@1.6.6\Unity.Burst.Unsafe.dll"
-a="F:\projekty\kasza\Kaszaa\Library\PackageCache\com.unity.burst@1.6.6\Unity.Burst.CodeGen\Unity.Burst.Cecil.Mdb.dll"
-a="F:\projekty\kasza\Kaszaa\Library\PackageCache\com.unity.nuget.newtonsoft-json@2.0.0\Runtime\Portable\Newtonsoft.Json.dll"
-a="F:\projekty\kasza\Kaszaa\Library\PackageCache\com.unity.nuget.mono-cecil@1.10.1\Mono.Cecil.Pdb.dll"
-a="F:\projekty\kasza\Kaszaa\Library\PackageCache\com.unity.burst@1.6.6\Unity.Burst.CodeGen\Unity.Burst.Cecil.Pdb.dll"
-a="F:\projekty\kasza\Kaszaa\Library\PackageCache\com.unity.burst@1.6.6\Unity.Burst.CodeGen\Unity.Burst.Cecil.dll"
-a="F:\projekty\kasza\Kaszaa\Library\PackageCache\com.unity.nuget.mono-cecil@1.10.1\Mono.Cecil.Rocks.dll"
-a="F:\projekty\kasza\Kaszaa\Library\PackageCache\com.unity.burst@1.6.6\Unity.Burst.CodeGen\Unity.Burst.Cecil.Rocks.dll"
-a="F:\projekty\kasza\Kaszaa\Library\PackageCache\com.unity.visualscripting@1.7.6\Runtime\VisualScripting.Flow\Dependencies\NCalc\Unity.VisualScripting.Antlr3.Runtime.dll"
-a="F:\projekty\kasza\Kaszaa\Library\PackageCache\com.unity.nuget.newtonsoft-json@2.0.0\Runtime\Newtonsoft.Json.dll"
-a="F:\projekty\kasza\Kaszaa\Library\PackageCache\com.unity.ext.nunit@1.0.6\net35\unity-custom\nunit.framework.dll"
-a="F:\projekty\kasza\Kaszaa\Library\PackageCache\com.unity.nuget.mono-cecil@1.10.1\Mono.Cecil.dll"
-s="D:\2021.2.8f1\Editor\Data\Managed\UnityEngine"
-s="F:\projekty\kasza\Kaszaa\Library\PlayerScriptAssemblies"
-s="F:\projekty\kasza\Kaszaa\Library\PackageCache\com.unity.nuget.newtonsoft-json@2.0.0\Runtime\AOT"
-s="F:\projekty\kasza\Kaszaa\Library\PackageCache\com.unity.collections@1.2.4\Unity.Collections.LowLevel.ILSupport"
-s="F:\projekty\kasza\Kaszaa\Library\PackageCache\com.unity.nuget.mono-cecil@1.10.1"
-s="F:\projekty\kasza\Kaszaa\Library\PackageCache\com.unity.transport@1.2.0\Analyzers"
-s="F:\projekty\kasza\Kaszaa\Library\PackageCache\com.unity.burst@1.6.6"
-s="F:\projekty\kasza\Kaszaa\Library\PackageCache\com.unity.burst@1.6.6\Unity.Burst.CodeGen"
-s="F:\projekty\kasza\Kaszaa\Library\PackageCache\com.unity.nuget.newtonsoft-json@2.0.0\Runtime\Portable"
-s="F:\projekty\kasza\Kaszaa\Library\PackageCache\com.unity.visualscripting@1.7.6\Runtime\VisualScripting.Flow\Dependencies\NCalc"
-s="F:\projekty\kasza\Kaszaa\Library\PackageCache\com.unity.nuget.newtonsoft-json@2.0.0\Runtime"
-s="F:\projekty\kasza\Kaszaa\Library\PackageCache\com.unity.ext.nunit@1.0.6\net35\unity-custom"
-s="D:\2021.2.8f1\Editor\Data\Managed\UnityEngine"
-s="D:\2021.2.8f1\Editor\Data\NetStandard\ref\2.1.0"
-s="D:\2021.2.8f1\Editor\Data\NetStandard\compat\2.1.0\shims\netstandard"
-s="D:\2021.2.8f1\Editor\Data\NetStandard\Extensions\2.0.0"
-s="D:\2021.2.8f1\Editor\Data\NetStandard\compat\2.1.0\shims\netfx"
-o="F:\projekty\kasza\Kaszaa\Library\BuildPlayerData\Player"
-rn="RuntimeInitializeOnLoads.json"
-tn="TypeDb-All.json"
